{
    "photos": {
        "page": 1,
        "pages": 32,
        "perpage": 2,
        "total": 500,
        "photo": [{
                "id": "8631253867",
                "owner": "7470307@N06",
                "secret": "84d168c424",
                "server": "8545",
                "farm": 9,
                "title": "",
                "ispublic": 1,
                "isfriend": 0,
                "isfamily": 0,
                "description": {
                    "_content": "Clorindo Testa, with Bill."
                },
                "ownername": ".Betina."
            }, {
                "id": "8631275288",
                "owner": "78331455@N05",
                "secret": "9ce76b1293",
                "server": "8123",
                "farm": 9,
                "title": "The rush home",
                "ispublic": 1,
                "isfriend": 0,
                "isfamily": 0,
                "description": {
                    "_content": ""
                },
                "ownername": "Scott Baldock Photography"
            }
        ]
    },
    "stat": "ok"
}